<svg width="31" height="30" viewBox="0 0 31 30" fill="none" xmlns="http://www.w3.org/2000/svg">
<path d="M29.6438 6.17122C28.6001 6.63372 27.4788 6.94622 26.3001 7.08747C27.5163 6.35971 28.4262 5.21431 28.8601 3.86497C27.7174 4.54371 26.4667 5.02147 25.1626 5.27747C24.2855 4.34106 23.1239 3.72038 21.858 3.51182C20.592 3.30325 19.2927 3.51846 18.1616 4.12404C17.0305 4.72962 16.131 5.69168 15.6027 6.86085C15.0745 8.03003 14.947 9.34091 15.2401 10.59C12.9247 10.4737 10.6596 9.87191 8.59184 8.82361C6.52408 7.7753 4.69986 6.30393 3.23756 4.50497C2.73756 5.36747 2.45006 6.36747 2.45006 7.43247C2.4495 8.39122 2.6856 9.33528 3.1374 10.1809C3.58921 11.0265 4.24276 11.7475 5.04006 12.28C4.1154 12.2506 3.21115 12.0007 2.40256 11.5512V11.6262C2.40246 12.9709 2.8676 14.2742 3.71904 15.315C4.57047 16.3557 5.75577 17.0699 7.07381 17.3362C6.21604 17.5684 5.31673 17.6026 4.44381 17.4362C4.81568 18.5932 5.54005 19.605 6.51552 20.3299C7.49098 21.0548 8.6687 21.4565 9.88381 21.4787C7.8211 23.098 5.27367 23.9763 2.65131 23.9725C2.18678 23.9726 1.72265 23.9455 1.26131 23.8912C3.92315 25.6027 7.02173 26.511 10.1863 26.5075C20.8988 26.5075 26.7551 17.635 26.7551 9.93997C26.7551 9.68997 26.7488 9.43747 26.7376 9.18747C27.8767 8.36369 28.8599 7.34359 29.6413 6.17497L29.6438 6.17122V6.17122Z" fill="white"/>
</svg>
