<svg width="63" height="26" viewBox="0 0 63 26" fill="none" xmlns="http://www.w3.org/2000/svg">
<g clip-path="url(#clip0)">
<path d="M8.48853 4.6359L8.49791 4.59215L8.52291 4.40778L7.36666 4.40153C6.32291 4.39528 6.00259 4.40153 5.97447 4.42809C5.96041 4.44059 5.59947 5.8109 4.95728 8.29215C4.65103 9.47653 4.39322 10.4218 4.38384 10.3937C4.37447 10.3656 4.00884 9.01403 3.56822 7.39059C3.30441 6.398 3.03148 5.40785 2.74947 4.42028C2.73384 4.40465 1.33384 4.3984 0.199469 4.40778C0.0354066 4.40934 -0.0567808 4.08746 1.66509 9.56246C1.90259 10.3203 2.26041 11.3937 2.45728 11.9468C2.68541 12.5843 2.84791 13.0781 2.95884 13.489C3.15572 14.2718 3.16197 14.7625 3.11978 15.3359C3.06978 15.9968 3.06353 20.6687 3.11197 20.7468C3.14947 20.8062 5.33853 20.8343 5.54634 20.7781C5.57916 20.7687 5.60103 20.7375 5.61666 20.5609C5.66822 20.4093 5.67291 19.8047 5.67291 17.2953V14.0906L5.81353 13.6484C5.90572 13.3593 6.13541 12.5984 6.32603 11.9578L6.83697 10.2547C7.66353 7.5609 8.45103 4.91246 8.47291 4.7609L8.49009 4.63746L8.48853 4.6359Z" fill="white"/>
<path d="M20.7479 8.52341V8.6906H20.7213L20.7073 13.3047L20.6932 17.7781L20.3354 18.1422C19.9338 18.55 19.6135 18.7062 19.3229 18.6328C19.0057 18.5531 19.0151 18.6765 18.9885 13.389L18.9635 8.52185H16.6604V8.68904H16.6338V13.9703C16.6338 19.6281 16.6338 19.625 16.9213 20.1922C17.1495 20.6453 17.4838 20.8656 18.0541 20.9406C18.8057 21.0406 19.6166 20.7 20.3682 19.9687L20.6948 19.6515V20.2C20.6948 20.6734 20.7088 20.7515 20.7948 20.775C20.9354 20.814 22.6791 20.8172 22.8666 20.7781L23.0229 20.7453V20.5828L23.0495 20.5781V8.4906L20.7495 8.52185L20.7479 8.52341Z" fill="white"/>
<path d="M14.9073 10.9078C14.6885 9.97181 14.2807 9.34213 13.6073 8.90775C12.551 8.22494 11.3432 8.1515 10.2244 8.70463C9.40882 9.10775 8.88225 9.7765 8.61194 10.7578C8.57724 10.8758 8.55267 10.9965 8.5385 11.1187C8.46975 11.4656 8.46194 11.9812 8.44319 14.389C8.41507 18.0984 8.45882 18.539 8.92288 19.3812C9.37913 20.2078 10.3244 20.814 11.3541 20.939C11.6635 20.9765 12.2916 20.9187 12.6541 20.8171C13.4744 20.589 14.2619 19.9406 14.6104 19.2046C14.7638 18.91 14.8638 18.5904 14.9057 18.2609C15.0073 17.7093 15.0151 16.8156 15.0151 14.5406C15.0151 11.639 15.0057 11.3218 14.9088 10.9062L14.9073 10.9078ZM12.2807 18.4687C12.0432 18.6239 11.7539 18.679 11.476 18.6218C11.2651 18.5765 10.9791 18.2453 10.8916 17.9437C10.7823 17.5671 10.7744 12.3281 10.8682 11.3015C11.0244 10.7874 11.4588 10.5187 11.9338 10.6468C12.3041 10.7468 12.4932 10.9781 12.601 11.464C12.6807 11.8249 12.6901 12.2734 12.6729 14.9124C12.6619 16.6624 12.6557 17.5187 12.5979 17.9781C12.5401 18.2671 12.4432 18.3453 12.2807 18.4703V18.4687Z" fill="white"/>
<path d="M56.2526 13.5406H57.3651L57.3479 12.5328C57.3307 11.6078 57.3166 11.5031 57.1932 11.2516C56.9979 10.8563 56.7104 10.6797 56.2541 10.6797C55.7057 10.6797 55.3588 10.9453 55.1948 11.4891C55.1244 11.7203 55.051 13.3125 55.1041 13.45C55.1338 13.5266 55.2932 13.5406 56.2526 13.5406V13.5406Z" fill="white"/>
<path d="M48.8151 11.2484C48.7489 11.1095 48.6424 10.9938 48.5094 10.9163C48.3765 10.8388 48.2233 10.8032 48.0698 10.8141C47.779 10.8363 47.502 10.947 47.276 11.1312L47.0776 11.2828V18.5234L47.276 18.675C47.726 19.0187 48.2198 19.0906 48.5604 18.8625C48.7015 18.7629 48.8041 18.6178 48.851 18.4516C48.9401 18.1953 48.9479 17.8656 48.937 14.8187C48.9245 11.6437 48.9182 11.4562 48.8151 11.2484V11.2484Z" fill="white"/>
<path d="M62.612 7.98593C62.3901 5.32812 62.2135 4.46562 61.6667 3.35781C60.9401 1.89062 59.8917 1.11718 58.3979 0.946872C57.2432 0.815622 52.8963 0.629685 48.876 0.540622C41.9135 0.385935 30.4667 0.684372 29.0042 1.05781C28.3515 1.218 27.7583 1.56176 27.2948 2.04843C26.3713 2.96718 25.8198 4.28593 25.5995 6.11093C25.0948 10.2766 25.0838 15.3078 25.5698 19.625C25.7792 21.4812 26.2104 22.6875 27.0198 23.6812C27.5245 24.3016 28.3963 24.8281 29.1745 24.9859C29.7213 25.0969 32.4557 25.25 36.4401 25.3922C37.0338 25.4141 38.6042 25.45 39.9323 25.4734C42.6979 25.5219 47.7838 25.4937 50.6917 25.4125C52.6479 25.3578 56.2135 25.2125 56.8807 25.1609C57.0682 25.1469 57.5026 25.1187 57.8463 25.1C59.001 25.0344 59.7354 24.7937 60.4245 24.2516C61.3167 23.55 62.0073 22.2547 62.2995 20.7344C62.576 19.2969 62.7604 16.7359 62.7979 13.8281C62.8292 11.3984 62.787 10.0891 62.612 7.98281V7.98593ZM34.887 7.02343L33.5932 7.03906L33.537 20.8359L32.4151 20.85C31.5479 20.8625 31.2838 20.8484 31.2635 20.7937C31.2479 20.7547 31.2307 17.6437 31.2229 13.8812L31.2088 7.03906L28.6823 7.00781V4.85156L36.1495 4.88125L36.1807 7.00625L34.887 7.02187V7.02343ZM42.8198 14.9312V20.8641H40.776V20.2391C40.776 19.7687 40.7588 19.6141 40.7026 19.6141C40.662 19.6141 40.4776 19.7687 40.2917 19.9578C39.887 20.3687 39.4088 20.6984 38.9995 20.8516C38.1526 21.1687 37.3495 20.9828 37.0073 20.3937C36.6932 19.8547 36.6885 19.7328 36.6885 14.1359V8.99531H38.7307L38.7463 13.8359C38.762 18.5922 38.7635 18.6797 38.8776 18.8734C39.0292 19.1297 39.2588 19.2 39.6245 19.0984C39.8401 19.0391 39.987 18.9344 40.3354 18.5875L40.776 18.15V8.99531H42.8198V14.9281V14.9312ZM50.7917 20.0172C50.612 20.4187 50.2104 20.8109 49.8807 20.9078C49.0229 21.1609 48.3338 20.9547 47.5385 20.2062C47.2917 19.9734 47.062 19.7859 47.0276 19.7859C46.9854 19.7859 46.9635 19.9672 46.9635 20.325V20.8641H44.9198V4.85156H46.9635V7.46406C46.9635 8.9 46.9823 10.0766 47.0057 10.0766C47.0292 10.0766 47.2448 9.88593 47.4854 9.65468C48.0385 9.12187 48.4995 8.8875 49.0854 8.84375C50.1307 8.76406 50.7542 9.30312 51.0385 10.5312C51.1276 10.9141 51.1354 11.3516 51.1354 14.9031C51.1354 19.2281 51.1354 19.2469 50.7901 20.0172H50.7917ZM59.4401 17.6422C59.4295 18.0234 59.3893 18.4032 59.3198 18.7781C59.0354 19.8312 58.2792 20.5781 57.1854 20.8844C55.7135 21.2969 54.0917 20.6219 53.4448 19.3266C53.0823 18.6 53.0682 18.4547 53.0682 14.9031C53.0682 12.0078 53.0792 11.6516 53.1713 11.2562C53.4338 10.1391 54.0838 9.41562 55.1854 9.01406C55.5042 8.89843 55.837 8.8375 56.1698 8.83125C57.3588 8.80625 58.537 9.44531 59.0323 10.4859C59.3651 11.1875 59.4073 11.4891 59.4401 13.4672L59.4698 15.2422L55.112 15.2719L55.0963 16.4641C55.0729 18.1469 55.187 18.6641 55.6417 18.9687C56.0229 19.2266 56.6104 19.2062 56.9292 18.9266C57.2292 18.6641 57.3135 18.3812 57.3432 17.5562L57.3698 16.8328H59.4745L59.4401 17.6422V17.6422Z" fill="white"/>
</g>
<defs>
<clipPath id="clip0">
<rect width="62.5" height="25" fill="white" transform="translate(0.0900879 0.5)"/>
</clipPath>
</defs>
</svg>
